{"success":true,"data":[{"id":"19fc4477-1fa6-41dc-9706-7a9eb723b089","title":"T3 - Estudar","description":"Revisar conteúdo","completed":false,"priority":"medium","userId":"bfea751a-ac1c-42c1-b955-19669a7f77a9","category":"estudos","tags":"importante,prova","createdAt":"2025-08-20 14:43:14"}],"meta":{"page":2,"limit":2,"total":3,"pages":2}}