{"success":true,"data":[{"id":"5aabb9b8-6977-43d8-89b3-03574ad83acd","title":"T1 - Relatório","description":"Escrever relatório","completed":false,"priority":"high","userId":"bfea751a-ac1c-42c1-b955-19669a7f77a9","category":"trabalho","tags":"importante,redacao","createdAt":"2025-08-20 14:43:14"},{"id":"99e22191-7fc5-4fd0-a222-e1e4a3c38f86","title":"T2 - Mercado","description":"Comprar frutas","completed":false,"priority":"low","userId":"bfea751a-ac1c-42c1-b955-19669a7f77a9","category":"pessoal","tags":"compras,supermercado","createdAt":"2025-08-20 14:43:14"}],"meta":{"page":1,"limit":2,"total":3,"pages":2}}